examples/class-21-10-25/debouncer.vcd
$date
	Mon Oct 25 18:42:13 2021
$end
$version
	Icarus Verilog
$end
$timescale
	1ps
$end
$scope module test_debouncer $end
$scope module UUT $end
$var wire 1 ! bouncy_in $end
$var wire 1 " clk $end
$var wire 1 # rst $end
$var reg 8 $ counter [7:0] $end
$var reg 1 % debounced_out $end
$var reg 2 & state [1:0] $end
$scope begin fsm_logic $end
$upscope $end
$scope begin output_logic $end
$upscope $end
$upscope $end
$upscope $end
$enddefinitions $end
#0
$dumpvars
bx &
x%
bx $
1#
0"
0!
$end
#41000
0%
b0 &
1"
#82000
0"
#123000
1"
#164000
0#
0"
#169000
1!
#205000
b1 &
b0 $
1"
#218000
0!
#229000
1!
#246000
0"
#257000
0!
#275000
1!
#287000
b1 $
1"
#291000
0!
#328000
0"
#329000
1!
#343000
0!
#348000
1!
#369000
b10 $
0!
1"
#389000
1!
#410000
0"
#451000
b11 $
1"
#492000
0"
#533000
b100 $
1"
#574000
0"
#615000
b101 $
1"
#656000
0"
#697000
b110 $
1"
#738000
0"
#779000
b111 $
1"
#820000
0"
#861000
b1000 $
1"
#902000
0"
#943000
b1001 $
1"
#984000
0"
#1025000
b1010 $
1"
#1066000
0"
#1107000
b1011 $
1"
#1148000
0"
#1189000
b1100 $
1"
#1230000
0"
#1271000
b1101 $
1"
#1312000
0"
#1353000
b1110 $
1"
#1394000
0"
#1435000
b1111 $
1"
#1476000
0"
#1517000
b10000 $
1"
#1558000
0"
#1599000
b10001 $
1"
#1640000
0"
#1681000
b10010 $
1"
#1722000
0"
#1763000
b10011 $
1"
#1804000
0"
#1845000
b10100 $
1"
#1886000
0"
#1927000
b10101 $
1"
#1968000
0"
#2009000
b10110 $
1"
#2050000
0"
#2091000
b10111 $
1"
#2132000
0"
#2173000
b11000 $
1"
#2214000
0"
#2255000
b11001 $
1"
#2296000
0"
#2337000
b11010 $
1"
#2378000
0"
#2419000
b11011 $
1"
#2460000
0"
#2501000
b11100 $
1"
#2542000
0"
#2583000
b11101 $
1"
#2624000
0"
#2665000
b11110 $
1"
#2706000
0"
#2747000
b11111 $
1"
#2788000
0"
#2829000
b100000 $
1"
#2870000
0"
#2911000
b100001 $
1"
#2952000
0"
#2993000
b100010 $
1"
#3034000
0"
#3075000
b100011 $
1"
#3116000
0"
#3157000
b100100 $
1"
#3198000
0"
#3239000
b100101 $
1"
#3280000
0"
#3321000
b100110 $
1"
#3362000
0"
#3403000
b100111 $
1"
#3444000
0"
#3485000
b101000 $
1"
#3526000
0"
#3567000
b101001 $
1"
#3608000
0"
#3649000
b101010 $
1"
#3690000
0"
#3731000
b101011 $
1"
#3772000
0"
#3813000
b101100 $
1"
#3854000
0"
#3895000
b101101 $
1"
#3936000
0"
#3977000
b101110 $
1"
#4018000
0"
#4059000
b101111 $
1"
#4100000
0"
#4141000
b110000 $
1"
#4182000
0"
#4223000
b110001 $
1"
#4264000
0"
#4305000
b110010 $
1"
#4346000
0"
#4387000
b110011 $
1"
#4428000
0"
#4469000
b110100 $
1"
#4510000
0"
#4551000
b110101 $
1"
#4592000
0"
#4633000
b110110 $
1"
#4674000
0"
#4715000
b110111 $
1"
#4756000
0"
#4797000
b111000 $
1"
#4838000
0"
#4879000
b111001 $
1"
#4920000
0"
#4961000
b111010 $
1"
#5002000
0"
#5043000
b111011 $
1"
#5084000
0"
#5125000
b111100 $
1"
#5166000
0"
#5207000
b111101 $
1"
#5248000
0"
#5289000
b111110 $
1"
#5330000
0"
#5371000
b111111 $
1"
#5412000
0"
#5453000
b1000000 $
1"
#5494000
0"
#5535000
b1000001 $
1"
#5576000
0"
#5617000
b1000010 $
1"
#5658000
0"
#5699000
b1000011 $
1"
#5740000
0"
#5781000
b1000100 $
1"
#5822000
0"
#5863000
b1000101 $
1"
#5904000
0"
#5945000
b1000110 $
1"
#5986000
0"
#6027000
b1000111 $
1"
#6068000
0"
#6109000
b1001000 $
1"
#6150000
0"
#6191000
b1001001 $
1"
#6232000
0"
#6273000
b1001010 $
1"
#6314000
0"
#6355000
b1001011 $
1"
#6396000
0"
#6437000
b1001100 $
1"
#6478000
0"
#6519000
b1001101 $
1"
#6560000
0"
#6601000
b1001110 $
1"
#6642000
0"
#6683000
b1001111 $
1"
#6724000
0"
#6765000
b1010000 $
1"
#6806000
0"
#6847000
b1010001 $
1"
#6888000
0"
#6929000
b1010010 $
1"
#6970000
0"
#7011000
b1010011 $
1"
#7052000
0"
#7093000
b1010100 $
1"
#7134000
0"
#7175000
b1010101 $
1"
#7216000
0"
#7257000
b1010110 $
1"
#7298000
0"
#7339000
b1010111 $
1"
#7380000
0"
#7421000
b1011000 $
1"
#7462000
0"
#7503000
b1011001 $
1"
#7544000
0"
#7585000
b1011010 $
1"
#7626000
0"
#7667000
b1011011 $
1"
#7708000
0"
#7749000
b1011100 $
1"
#7790000
0"
#7831000
b1011101 $
1"
#7872000
0"
#7913000
b1011110 $
1"
#7954000
0"
#7995000
b1011111 $
1"
#8036000
0"
#8077000
b1100000 $
1"
#8118000
0"
#8159000
b1100001 $
1"
#8200000
0"
#8241000
b1100010 $
1"
#8282000
0"
#8323000
b1100011 $
1"
#8364000
0"
#8405000
1%
b10 &
b1100100 $
1"
