01_game_of_life/led_array_driver.vcd
$date
	Wed Oct 13 13:57:21 2021
$end
$version
	Icarus Verilog
$end
$timescale
	1ps
$end
$scope module test_led_array_driver $end
$scope module UUT $end
$var wire 25 ! cells [24:0] $end
$var wire 1 " ena $end
$var wire 4 # x [3:0] $end
$var wire 5 $ x_decoded [4:0] $end
$var reg 5 % cols [4:0] $end
$var reg 5 & rows [4:0] $end
$scope module COL_DECODER $end
$var wire 1 " ena $end
$var wire 3 ' in [2:0] $end
$var reg 8 ( out [7:0] $end
$upscope $end
$upscope $end
$upscope $end
$enddefinitions $end
#0
$dumpvars
b0 (
b0 '
b0 &
b0 %
b0 $
b0 #
0"
b1111111111111111111111111 !
$end
#1000
b1 %
b1 $
b1 (
b10000 &
b1 !
1"
#2000
b10 %
b10 $
b10 (
b10000 &
b1 '
b1 !
b1 #
#3000
b100 %
b100 $
b100 (
b10000 &
b10 '
b1 !
b10 #
#4000
b1000 %
b1000 $
b1000 (
b10000 &
b11 '
b1 !
b11 #
#5000
b10000 %
b10000 $
b10000 (
b1111 &
b100 '
b1 !
b100 #
#6000
b1 %
b1 $
b1 (
b1000 &
b0 '
b100000 !
b0 #
#7000
b10 %
b10 $
b10 (
b1000 &
b1 '
b100000 !
b1 #
#8000
b100 %
b100 $
b100 (
b1000 &
b10 '
b100000 !
b10 #
#9000
b1000 %
b1000 $
b1000 (
b1000 &
b11 '
b100000 !
b11 #
#10000
b10000 %
b10000 $
b10000 (
b10111 &
b100 '
b100000 !
b100 #
#11000
b1 %
b1 $
b1 (
b100 &
b0 '
b10000000000 !
b0 #
#12000
b10 %
b10 $
b10 (
b100 &
b1 '
b10000000000 !
b1 #
#13000
b100 %
b100 $
b100 (
b100 &
b10 '
b10000000000 !
b10 #
#14000
b1000 %
b1000 $
b1000 (
b100 &
b11 '
b10000000000 !
b11 #
#15000
b10000 %
b10000 $
b10000 (
b11011 &
b100 '
b10000000000 !
b100 #
#16000
b1 %
b1 $
b1 (
b10 &
b0 '
b1000000000000000 !
b0 #
#17000
b10 %
b10 $
b10 (
b10 &
b1 '
b1000000000000000 !
b1 #
#18000
b100 %
b100 $
b100 (
b10 &
b10 '
b1000000000000000 !
b10 #
#19000
b1000 %
b1000 $
b1000 (
b10 &
b11 '
b1000000000000000 !
b11 #
#20000
b10000 %
b10000 $
b10000 (
b11101 &
b100 '
b1000000000000000 !
b100 #
#21000
b1 %
b1 $
b1 (
b1 &
b0 '
b100000000000000000000 !
b0 #
#22000
b10 %
b10 $
b10 (
b1 &
b1 '
b100000000000000000000 !
b1 #
#23000
b100 %
b100 $
b100 (
b1 &
b10 '
b100000000000000000000 !
b10 #
#24000
b1000 %
b1000 $
b1000 (
b1 &
b11 '
b100000000000000000000 !
b11 #
#25000
b10000 %
b10000 $
b10000 (
b11110 &
b100 '
b100000000000000000000 !
b100 #
#26000
b1 %
b1 $
b1 (
b0 &
b0 '
b10 !
b0 #
#27000
b10 %
b10 $
b10 (
b0 &
b1 '
b10 !
b1 #
#28000
b100 %
b100 $
b100 (
b0 &
b10 '
b10 !
b10 #
#29000
b1000 %
b1000 $
b1000 (
b0 &
b11 '
b10 !
b11 #
#30000
b10000 %
b10000 $
b10000 (
b11111 &
b100 '
b10 !
b100 #
#31000
b1 %
b1 $
b1 (
b0 &
b0 '
b1000000 !
b0 #
#32000
b10 %
b10 $
b10 (
b0 &
b1 '
b1000000 !
b1 #
#33000
b100 %
b100 $
b100 (
b0 &
b10 '
b1000000 !
b10 #
#34000
b1000 %
b1000 $
b1000 (
b0 &
b11 '
b1000000 !
b11 #
#35000
b10000 %
b10000 $
b10000 (
b11111 &
b100 '
b1000000 !
b100 #
#36000
b1 %
b1 $
b1 (
b0 &
b0 '
b100000000000 !
b0 #
#37000
b10 %
b10 $
b10 (
b0 &
b1 '
b100000000000 !
b1 #
#38000
b100 %
b100 $
b100 (
b0 &
b10 '
b100000000000 !
b10 #
#39000
b1000 %
b1000 $
b1000 (
b0 &
b11 '
b100000000000 !
b11 #
#40000
b10000 %
b10000 $
b10000 (
b11111 &
b100 '
b100000000000 !
b100 #
#41000
b1 %
b1 $
b1 (
b0 &
b0 '
b10000000000000000 !
b0 #
#42000
b10 %
b10 $
b10 (
b0 &
b1 '
b10000000000000000 !
b1 #
#43000
b100 %
b100 $
b100 (
b0 &
b10 '
b10000000000000000 !
b10 #
#44000
b1000 %
b1000 $
b1000 (
b0 &
b11 '
b10000000000000000 !
b11 #
#45000
b10000 %
b10000 $
b10000 (
b11111 &
b100 '
b10000000000000000 !
b100 #
#46000
b1 %
b1 $
b1 (
b0 &
b0 '
b1000000000000000000000 !
b0 #
#47000
b10 %
b10 $
b10 (
b0 &
b1 '
b1000000000000000000000 !
b1 #
#48000
b100 %
b100 $
b100 (
b0 &
b10 '
b1000000000000000000000 !
b10 #
#49000
b1000 %
b1000 $
b1000 (
b0 &
b11 '
b1000000000000000000000 !
b11 #
#50000
b10000 %
b10000 $
b10000 (
b11111 &
b100 '
b1000000000000000000000 !
b100 #
#51000
b1 %
b1 $
b1 (
b0 &
b0 '
b100 !
b0 #
#52000
b10 %
b10 $
b10 (
b0 &
b1 '
b100 !
b1 #
#53000
b100 %
b100 $
b100 (
b0 &
b10 '
b100 !
b10 #
#54000
b1000 %
b1000 $
b1000 (
b0 &
b11 '
b100 !
b11 #
#55000
b10000 %
b10000 $
b10000 (
b11111 &
b100 '
b100 !
b100 #
#56000
b1 %
b1 $
b1 (
b0 &
b0 '
b10000000 !
b0 #
#57000
b10 %
b10 $
b10 (
b0 &
b1 '
b10000000 !
b1 #
#58000
b100 %
b100 $
b100 (
b0 &
b10 '
b10000000 !
b10 #
#59000
b1000 %
b1000 $
b1000 (
b0 &
b11 '
b10000000 !
b11 #
#60000
b10000 %
b10000 $
b10000 (
b11111 &
b100 '
b10000000 !
b100 #
#61000
b1 %
b1 $
b1 (
b0 &
b0 '
b1000000000000 !
b0 #
#62000
b10 %
b10 $
b10 (
b0 &
b1 '
b1000000000000 !
b1 #
#63000
b100 %
b100 $
b100 (
b0 &
b10 '
b1000000000000 !
b10 #
#64000
b1000 %
b1000 $
b1000 (
b0 &
b11 '
b1000000000000 !
b11 #
#65000
b10000 %
b10000 $
b10000 (
b11111 &
b100 '
b1000000000000 !
b100 #
#66000
b1 %
b1 $
b1 (
b0 &
b0 '
b100000000000000000 !
b0 #
#67000
b10 %
b10 $
b10 (
b0 &
b1 '
b100000000000000000 !
b1 #
#68000
b100 %
b100 $
b100 (
b0 &
b10 '
b100000000000000000 !
b10 #
#69000
b1000 %
b1000 $
b1000 (
b0 &
b11 '
b100000000000000000 !
b11 #
#70000
b10000 %
b10000 $
b10000 (
b11111 &
b100 '
b100000000000000000 !
b100 #
#71000
b1 %
b1 $
b1 (
b0 &
b0 '
b10000000000000000000000 !
b0 #
#72000
b10 %
b10 $
b10 (
b0 &
b1 '
b10000000000000000000000 !
b1 #
#73000
b100 %
b100 $
b100 (
b0 &
b10 '
b10000000000000000000000 !
b10 #
#74000
b1000 %
b1000 $
b1000 (
b0 &
b11 '
b10000000000000000000000 !
b11 #
#75000
b10000 %
b10000 $
b10000 (
b11111 &
b100 '
b10000000000000000000000 !
b100 #
#76000
b1 %
b1 $
b1 (
b0 &
b0 '
b1000 !
b0 #
#77000
b10 %
b10 $
b10 (
b0 &
b1 '
b1000 !
b1 #
#78000
b100 %
b100 $
b100 (
b0 &
b10 '
b1000 !
b10 #
#79000
b1000 %
b1000 $
b1000 (
b0 &
b11 '
b1000 !
b11 #
#80000
b10000 %
b10000 $
b10000 (
b11111 &
b100 '
b1000 !
b100 #
#81000
b1 %
b1 $
b1 (
b0 &
b0 '
b100000000 !
b0 #
#82000
b10 %
b10 $
b10 (
b0 &
b1 '
b100000000 !
b1 #
#83000
b100 %
b100 $
b100 (
b0 &
b10 '
b100000000 !
b10 #
#84000
b1000 %
b1000 $
b1000 (
b0 &
b11 '
b100000000 !
b11 #
#85000
b10000 %
b10000 $
b10000 (
b11111 &
b100 '
b100000000 !
b100 #
#86000
b1 %
b1 $
b1 (
b0 &
b0 '
b10000000000000 !
b0 #
#87000
b10 %
b10 $
b10 (
b0 &
b1 '
b10000000000000 !
b1 #
#88000
b100 %
b100 $
b100 (
b0 &
b10 '
b10000000000000 !
b10 #
#89000
b1000 %
b1000 $
b1000 (
b0 &
b11 '
b10000000000000 !
b11 #
#90000
b10000 %
b10000 $
b10000 (
b11111 &
b100 '
b10000000000000 !
b100 #
#91000
b1 %
b1 $
b1 (
b0 &
b0 '
b1000000000000000000 !
b0 #
#92000
b10 %
b10 $
b10 (
b0 &
b1 '
b1000000000000000000 !
b1 #
#93000
b100 %
b100 $
b100 (
b0 &
b10 '
b1000000000000000000 !
b10 #
#94000
b1000 %
b1000 $
b1000 (
b0 &
b11 '
b1000000000000000000 !
b11 #
#95000
b10000 %
b10000 $
b10000 (
b11111 &
b100 '
b1000000000000000000 !
b100 #
#96000
b1 %
b1 $
b1 (
b0 &
b0 '
b100000000000000000000000 !
b0 #
#97000
b10 %
b10 $
b10 (
b0 &
b1 '
b100000000000000000000000 !
b1 #
#98000
b100 %
b100 $
b100 (
b0 &
b10 '
b100000000000000000000000 !
b10 #
#99000
b1000 %
b1000 $
b1000 (
b0 &
b11 '
b100000000000000000000000 !
b11 #
#100000
b10000 %
b10000 $
b10000 (
b11111 &
b100 '
b100000000000000000000000 !
b100 #
#101000
b1 %
b1 $
b1 (
b0 &
b0 '
b10000 !
b0 #
#102000
b10 %
b10 $
b10 (
b0 &
b1 '
b10000 !
b1 #
#103000
b100 %
b100 $
b100 (
b0 &
b10 '
b10000 !
b10 #
#104000
b1000 %
b1000 $
b1000 (
b0 &
b11 '
b10000 !
b11 #
#105000
b10000 %
b10000 $
b10000 (
b11111 &
b100 '
b10000 !
b100 #
#106000
b1 %
b1 $
b1 (
b0 &
b0 '
b1000000000 !
b0 #
#107000
b10 %
b10 $
b10 (
b0 &
b1 '
b1000000000 !
b1 #
#108000
b100 %
b100 $
b100 (
b0 &
b10 '
b1000000000 !
b10 #
#109000
b1000 %
b1000 $
b1000 (
b0 &
b11 '
b1000000000 !
b11 #
#110000
b10000 %
b10000 $
b10000 (
b11111 &
b100 '
b1000000000 !
b100 #
#111000
b1 %
b1 $
b1 (
b0 &
b0 '
b100000000000000 !
b0 #
#112000
b10 %
b10 $
b10 (
b0 &
b1 '
b100000000000000 !
b1 #
#113000
b100 %
b100 $
b100 (
b0 &
b10 '
b100000000000000 !
b10 #
#114000
b1000 %
b1000 $
b1000 (
b0 &
b11 '
b100000000000000 !
b11 #
#115000
b10000 %
b10000 $
b10000 (
b11111 &
b100 '
b100000000000000 !
b100 #
#116000
b1 %
b1 $
b1 (
b0 &
b0 '
b10000000000000000000 !
b0 #
#117000
b10 %
b10 $
b10 (
b0 &
b1 '
b10000000000000000000 !
b1 #
#118000
b100 %
b100 $
b100 (
b0 &
b10 '
b10000000000000000000 !
b10 #
#119000
b1000 %
b1000 $
b1000 (
b0 &
b11 '
b10000000000000000000 !
b11 #
#120000
b10000 %
b10000 $
b10000 (
b11111 &
b100 '
b10000000000000000000 !
b100 #
#121000
b1 %
b1 $
b1 (
b0 &
b0 '
b1000000000000000000000000 !
b0 #
#122000
b10 %
b10 $
b10 (
b0 &
b1 '
b1000000000000000000000000 !
b1 #
#123000
b100 %
b100 $
b100 (
b0 &
b10 '
b1000000000000000000000000 !
b10 #
#124000
b1000 %
b1000 $
b1000 (
b0 &
b11 '
b1000000000000000000000000 !
b11 #
#125000
b10000 %
b10000 $
b10000 (
b11111 &
b100 '
b1000000000000000000000000 !
b100 #
#126000
b0 &
b0 %
b0 $
b100000 (
b101 '
b101 #
